{
  "type": "service_account",
  "project_id": "apsc-185419",
  "private_key_id": "43685e0f003d9ec7cb6cc54f0fb87635524cc31a",
  "private_key": "-----BEGIN PRIVATE KEY-----\nMIIEvQIBADANBgkqhkiG9w0BAQEFAASCBKcwggSjAgEAAoIBAQDZw2ucpTuuAgKu\nTE9s4dLBEthpqBVaIc2x+rlwAcQ/mcWZIAy+oZt+ltBc2d85ZriFLdON3i2VU1nn\na4jsJbXUu4qxrLJePavaJuCJmcuSnuaRZow52BmSVFrQiR10dC+ZswQBvGlEDD3o\nl2YMynkcoQwPea1ekv+qynWnql42u0YC3sLQ8MZgxbvU/q99oXV/gxf28ah414yS\nOAvR5c8xs9FTWJVosk9x35e/61P7uwkxO9ctfl2mTIrYF1OA5NbV46IEqKsfjD9M\naSeyDeVjB2JhvIROC7m2XfKlRk+U8bFkUY3oA4Q5ptaYw7+zQyZgDdgIM9zykcGa\n4Kof4ybDAgMBAAECggEAGc2Hk0Sa6TfwxGFjaeXqOJl4jjBt80OdIXExht2WuOiK\nGuZKzE3O5HWPU+k3A5Cx3Yn8DsvcP9zkAsFhtIWVYZMlUH9DlVoeYleH9JYGIqX0\ncRcjF3mNMiMPrbUJifJ4b3BgUapXGMqQjV5fJ7XYGvXUPYMv8UxewgiCX28XAcn/\n5uijMGCGr7rD28ZAxXOV5/3VrSCIZT/CLTgUP94Tdk09SEZnLVHtExX+DxHPA+Go\nnmh8F4wNYZk0xV7mnj2KeI9qg1GxKUUF058iUKhOCiKhhKiVnuekg/nW/KRaKgaa\no5v6DCJyZJBqvxcqQodj008UQiy7f4n+YH5OJ11maQKBgQD7E0z0S5MS8Jvg/dxL\ntbf4MgxmgYghGdaBXYghMpJetlw5y+8ozlU0v9X2LXwRtt91SeAr7E0NW8my1wQO\nHuLPNEBnVpg6fJqrbzvR01eTqivYGTXw0RYRDLsVRGYGNnij4OtVT06SxEo1N3Sy\n2ZjZC+fAOkdkY5H7b+g3Zh7nuwKBgQDeCNp6TtlfO9S/1vMIOgeb4FZQkmYyzZ4U\n0PSixiZH+GB1A0Kbo3m492WFHron0t708BtzV7yhtoGDT6lNF6Fyr6sjg2pfbelI\njDJU+GOVb9kYeVhuOFTeQxD0/9hU5RDGXWsUFSemDDBlVOqXGskID1WxswYDnjrW\nBmvbwDF4mQKBgAP1HOxo2Iue4UYdmkBTP/AYkdt3xTaIWro1SDUFwArgIvoCPeXN\nwsgPEgdMVj1NPZ5yqKbolZpVTQuVmgnC8N5FO5KlacbaOfHj0fSPuTypnQFN/Gys\nTwW7xqMiLd2BNEuY+vygQGPN1kGaeytqhJ8/Mcr04DUz4JQvAmEFKg2LAoGBAMRS\n17ul1JZcdPVbvnDbvraZWjjL+gmZvdlyGZ2Dz317pO5R/6dWmN5wAhf+32MvFW1G\nkT8fqO7kTQgqe+xqpJqfsZcpL/lJWiiHrklrh8Iur6rwQLzUmlYcvvWi80m9cWO0\nXmXXfsNXq8MtnnAVgwPZa1BAl2TDmAp+iwg3nIahAoGAYRtaE0pJsQzLC45aZhxA\neeUiVSmGila3Ek9wmgLoDI/27gUqujZ9myCSTUl5FGcHPBFfEJr4Q0aWLKxTr9Sj\n+87xAeNWITYX0h7VPYuQTqWkN8PXuBYfJCnrU3di2LkLH+4w5mCRxYd0vzCXFSWG\n4vjQFLZ6iYeGG2npb2T+tWg=\n-----END PRIVATE KEY-----\n",
  "client_email": "apsc-579@apsc-185419.iam.gserviceaccount.com",
  "client_id": "103226115261037116496",
  "auth_uri": "https://accounts.google.com/o/oauth2/auth",
  "token_uri": "https://accounts.google.com/o/oauth2/token",
  "auth_provider_x509_cert_url": "https://www.googleapis.com/oauth2/v1/certs",
  "client_x509_cert_url": "https://www.googleapis.com/robot/v1/metadata/x509/apsc-579%40apsc-185419.iam.gserviceaccount.com"
}
